Group every N observations together — group_every • animovement
…
# Group every n observations
df <- data.frame(
  x = seq(1:1000),
  y = rnorm(1000))

df |>
  group_every(n = 30) |> # group every 30 observations together
  dplyr::summarise(mean_x = mean(x),
                   mean_y = mean(y))
#> # A tibble: 34 × 3
#>      bin mean_x  mean_y
#>    <dbl>  <dbl>   <dbl>
#>  1     1   15.5 -0.208 
#>  2     2   45.5 -0.274 
#>  3     3   75.5 -0.463 
#>  4     4  106.  -0.0246
#>  5     5  136.  -0.211 
#>  6     6  166.  -0.0850
#>  7     7  196.   0.0452
#>  8     8  226.  -0.0140
#>  9     9  256.  -0.163 
#> 10    10  286.   0.219 
#> # ℹ 24 more rows
…
